%YAML 1.1
%TAG !u! tag:unity3d.com,2011:
--- !u!21 &2100000
Material:
  serializedVersion: 3
  m_ObjectHideFlags: 0
  m_PrefabParentObject: {fileID: 0}
  m_PrefabInternal: {fileID: 0}
  m_Name: Smoke Simple SEQ MAT Alpha
  m_Shader: {fileID: 4800000, guid: bb65fa3bdc0928a48aaeed9549e4b866, type: 3}
  m_ShaderKeywords: []
  m_CustomRenderQueue: -1
  m_SavedProperties:
    serializedVersion: 2
    m_TexEnvs:
      data:
        first:
          name: _MainTex
        second:
          m_Texture: {fileID: 2800000, guid: d5c1a341dfd199243a8fcd0e470bb9e2, type: 3}
          m_Scale: {x: 1, y: 1}
          m_Offset: {x: 0, y: 0}
      data:
        first:
          name: _BumpMap
        second:
          m_Texture: {fileID: 0}
          m_Scale: {x: 1, y: 1}
          m_Offset: {x: 0, y: 0}
    m_Floats:
      data:
        first:
          name: _InvFade
        second: .00999999978
    m_Colors:
      data:
        first:
          name: _Color
        second: {r: 1, g: 1, b: 1, a: 1}
      data:
        first:
          name: _TintColor
        second: {r: .395522416, g: .395522416, b: .395522416, a: .286274523}
      data:
        first:
          name: _EmisColor
        second: {r: .200000003, g: .200000003, b: .200000003, a: 0}
--- !u!1002 &2100001
EditorExtensionImpl:
  serializedVersion: 6
