%YAML 1.1
%TAG !u! tag:unity3d.com,2011:
--- !u!74 &7400000
AnimationClip:
  m_ObjectHideFlags: 0
  m_PrefabParentObject: {fileID: 0}
  m_PrefabInternal: {fileID: 0}
  m_Name: bossLoading
  serializedVersion: 4
  m_AnimationType: 2
  m_Compressed: 0
  m_UseHighQualityCurve: 1
  m_RotationCurves: []
  m_CompressedRotationCurves: []
  m_PositionCurves: []
  m_ScaleCurves:
  - curve:
      serializedVersion: 2
      m_Curve:
      - time: 0
        value: {x: 1, y: 1, z: 1}
        inSlope: {x: 1.20000029, y: 1.20000029, z: 1.20000029}
        outSlope: {x: 1.20000029, y: 1.20000029, z: 1.20000029}
        tangentMode: 0
      - time: .166666672
        value: {x: 1.20000005, y: 1.20000005, z: 1.20000005}
        inSlope: {x: 0, y: 0, z: 0}
        outSlope: {x: 0, y: 0, z: 0}
        tangentMode: 1065353216
      - time: .333333343
        value: {x: 1, y: 1, z: 1}
        inSlope: {x: -.600000143, y: -.600000143, z: -.600000143}
        outSlope: {x: -.600000143, y: -.600000143, z: -.600000143}
        tangentMode: 907253144
      - time: 1
        value: {x: 1, y: 1, z: 1}
        inSlope: {x: 0, y: 0, z: 0}
        outSlope: {x: 0, y: 0, z: 0}
        tangentMode: 905452392
      m_PreInfinity: 2
      m_PostInfinity: 2
    path: start/label
  m_FloatCurves: []
  m_PPtrCurves: []
  m_SampleRate: 60
  m_WrapMode: 0
  m_Bounds:
    m_Center: {x: 0, y: 0, z: 0}
    m_Extent: {x: 0, y: 0, z: 0}
  m_ClipBindingConstant:
    genericBindings:
    - path: 1892698072
      attribute: 3
      script: {fileID: 0}
      classID: 4
      customType: 0
      isPPtrCurve: 0
    pptrCurveMapping: []
  m_AnimationClipSettings:
    serializedVersion: 2
    m_StartTime: 0
    m_StopTime: 1
    m_OrientationOffsetY: 0
    m_Level: 0
    m_CycleOffset: 0
    m_LoopTime: 1
    m_LoopBlend: 0
    m_LoopBlendOrientation: 0
    m_LoopBlendPositionY: 0
    m_LoopBlendPositionXZ: 0
    m_KeepOriginalOrientation: 0
    m_KeepOriginalPositionY: 1
    m_KeepOriginalPositionXZ: 0
    m_HeightFromFeet: 0
    m_Mirror: 0
  m_EditorCurves:
  - curve:
      serializedVersion: 2
      m_Curve:
      - time: 0
        value: 1
        inSlope: 1.20000029
        outSlope: 1.20000029
        tangentMode: 10
      - time: .166666672
        value: 1.20000005
        inSlope: 0
        outSlope: 0
        tangentMode: 10
      - time: .333333343
        value: 1
        inSlope: -.600000143
        outSlope: -.600000143
        tangentMode: 10
      - time: 1
        value: 1
        inSlope: 0
        outSlope: 0
        tangentMode: 10
      m_PreInfinity: 2
      m_PostInfinity: 2
    attribute: m_LocalScale.x
    path: start/label
    classID: 4
    script: {fileID: 0}
  - curve:
      serializedVersion: 2
      m_Curve:
      - time: 0
        value: 1
        inSlope: 1.20000029
        outSlope: 1.20000029
        tangentMode: 10
      - time: .166666672
        value: 1.20000005
        inSlope: 0
        outSlope: 0
        tangentMode: 10
      - time: .333333343
        value: 1
        inSlope: -.600000143
        outSlope: -.600000143
        tangentMode: 10
      - time: 1
        value: 1
        inSlope: 0
        outSlope: 0
        tangentMode: 10
      m_PreInfinity: 2
      m_PostInfinity: 2
    attribute: m_LocalScale.y
    path: start/label
    classID: 4
    script: {fileID: 0}
  - curve:
      serializedVersion: 2
      m_Curve:
      - time: 0
        value: 1
        inSlope: 1.20000029
        outSlope: 1.20000029
        tangentMode: 10
      - time: .166666672
        value: 1.20000005
        inSlope: 0
        outSlope: 0
        tangentMode: 10
      - time: .333333343
        value: 1
        inSlope: -.600000143
        outSlope: -.600000143
        tangentMode: 10
      - time: 1
        value: 1
        inSlope: 0
        outSlope: 0
        tangentMode: 10
      m_PreInfinity: 2
      m_PostInfinity: 2
    attribute: m_LocalScale.z
    path: start/label
    classID: 4
    script: {fileID: 0}
  m_EulerEditorCurves: []
  m_Events: []
